EG_RESOLUTION_ALL 0.538 -1.089
EG_SCALE_ALL -2.002 1.693
FT_EFF_Eigen_B_0 -3.51 3.572
FT_EFF_Eigen_B_1 -1.514 1.525
FT_EFF_Eigen_B_2 0.216 -0.216
FT_EFF_Eigen_Light_0 -0.502 0.503
JET_BJES_Response 2.019 -1.968
JET_EffectiveNP_Detector1 -0.29 0.308
JET_EffectiveNP_Detector2 0 -0.195
JET_EffectiveNP_Mixed1 0.505 -0.492
JET_EffectiveNP_Mixed2 -0.395 0.444
JET_EffectiveNP_Mixed3 0.195 -0.188
JET_EffectiveNP_Modelling1 1.118 -1.402
JET_EffectiveNP_Modelling2 0.186 -0.462
JET_EffectiveNP_Modelling3 -0.321 0.276
JET_EffectiveNP_Modelling4 0 -0.195
JET_EffectiveNP_Statistical2 -0.391 0.469
JET_EffectiveNP_Statistical3 -0.1 0
JET_EffectiveNP_Statistical4 0.187 -0.195
JET_EffectiveNP_Statistical5 -0.195 0.131
JET_EffectiveNP_Statistical6 0.17 -0.195
JET_EtaIntercalibration_Modelling -1.57 1.786
JET_EtaIntercalibration_NonClosure_2018data -0.842 1.24
JET_EtaIntercalibration_NonClosure_negEta 0.169 -0.205
JET_EtaIntercalibration_NonClosure_posEta 0 0.186
JET_EtaIntercalibration_TotalStat -1.687 0.534
JET_Flavor_Composition -3.029 2.634
JET_Flavor_Response 1.871 -1.695
JET_JER_EffectiveNP_1 -2.592 1.934
JET_JER_EffectiveNP_10 -4.37 3.085
JET_JER_EffectiveNP_11 1.073 -1.866
JET_JER_EffectiveNP_12restTerm -1.059 1.977
JET_JER_EffectiveNP_2 -3.854 6.51
JET_JER_EffectiveNP_3 1.553 -3.489
JET_JER_EffectiveNP_4 2.011 -2.08
JET_JER_EffectiveNP_5 1.599 -2.229
JET_JER_EffectiveNP_6 1.347 -1.834
JET_JER_EffectiveNP_7 -2.133 2.02
JET_JER_EffectiveNP_8 2.355 -1.663
JET_JER_EffectiveNP_9 0.962 -1.539
JET_Pileup_OffsetMu -1.883 1.613
JET_Pileup_OffsetNPV -1.729 1.934
JET_Pileup_PtTerm -0.838 1.161
JET_Pileup_RhoTopology 1.968 -2.271
JET_fJvtEfficiency 1.84 -1.816
PH_EFF_ID_Uncertainty 1.78 -1.764
PH_EFF_ISO_Uncertainty 1.668 -1.654
PH_EFF_TRIGGER_Uncertainty 1.087 -1.08
PRW_DATASF -6.904 4.434
