EG_RESOLUTION_ALL 20.129 -15.935
EG_SCALE_ALL -7.073 8.973
FT_EFF_Eigen_B_0 -0.281 0
FT_EFF_Eigen_B_1 0 -0.267
FT_EFF_Eigen_B_2 -0.307 0
FT_EFF_Eigen_C_0 -0.901 0.271
FT_EFF_Eigen_C_1 -21.144 4.047
FT_EFF_Eigen_C_2 1.235 -21.144
FT_EFF_Eigen_C_3 0.901 -1.145
FT_EFF_Eigen_Light_0 0 -4.689
FT_EFF_Eigen_Light_1 0 -0.334
FT_EFF_Eigen_Light_2 -1.235 0
FT_EFF_Eigen_Light_3 -2.34 0.384
FT_EFF_Eigen_Light_4 -0.154 0
JET_BJES_Response 0 3.474
JET_EffectiveNP_Detector1 0 -1.862
JET_EffectiveNP_Mixed2 -1.862 0
JET_EffectiveNP_Mixed3 -0.296 0
JET_EffectiveNP_Modelling1 3.314 -1.025
JET_EffectiveNP_Modelling2 0 -0.282
JET_EffectiveNP_Modelling4 0 -0.28
JET_EffectiveNP_Statistical2 -1.862 0
JET_EffectiveNP_Statistical4 0 -0.274
JET_EffectiveNP_Statistical5 -0.274 0
JET_EffectiveNP_Statistical6 0 -0.28
JET_EtaIntercalibration_Modelling 0 -1.526
JET_EtaIntercalibration_NonClosure_negEta 0.103 -0.849
JET_EtaIntercalibration_NonClosure_posEta -0.613 0.486
JET_EtaIntercalibration_TotalStat 0 0.98
JET_Flavor_Composition 5.509 -13.023
JET_Flavor_Response 0 -5.509
JET_JER_DataVsMC_MC16 -0.862 0.822
JET_JER_EffectiveNP_1 3.734 -2.667
JET_JER_EffectiveNP_10 1.144 -0.792
JET_JER_EffectiveNP_11 1.331 -15.95
JET_JER_EffectiveNP_12restTerm 2.036 0
JET_JER_EffectiveNP_2 -2.011 2.475
JET_JER_EffectiveNP_3 -2.936 2.132
JET_JER_EffectiveNP_4 1.406 -1.753
JET_JER_EffectiveNP_5 -4.15 1.549
JET_JER_EffectiveNP_6 -5.695 1.722
JET_JER_EffectiveNP_7 2.25 -0.676
JET_JER_EffectiveNP_8 -1.468 9.403
JET_JER_EffectiveNP_9 2.102 -1.298
JET_Pileup_OffsetMu 0 -5.657
JET_Pileup_OffsetNPV 0 -5.657
JET_Pileup_PtTerm 0 -5.301
JET_Pileup_RhoTopology 0 -12.434
JET_fJvtEfficiency 0 -1.324
PH_EFF_ID_Uncertainty 0 -0.871
PH_EFF_ISO_Uncertainty 0 -0.871
PH_EFF_TRIGGER_Uncertainty -1.056 0.706
PRW_DATASF 3.907 -1.465
