{
  "observable": "m_yy",
  "weight": "weight",
  "index": [
    "eventNumber",
    "runNumber"
  ],
  "category_selection": {
    "SM_1": "(yybb_nonRes_XGBoost_BCal_Cat == 1)",
    "SM_2": "(yybb_nonRes_XGBoost_BCal_Cat == 2)",
    "SM_3": "(yybb_nonRes_XGBoost_BCal_Cat == 3)",
    "BSM_1": "(yybb_nonRes_XGBoost_BCal_Cat == 1001)",
    "BSM_2": "(yybb_nonRes_XGBoost_BCal_Cat == 1002)",
    "BSM_3": "(yybb_nonRes_XGBoost_BCal_Cat == 1003)",
    "BSM_4": "(yybb_nonRes_XGBoost_BCal_Cat == 1004)"
  },
  "systematics": {
    "FlavorSys": [
      "FT_EFF_Eigen_B_0",
      "FT_EFF_Eigen_B_1",
      "FT_EFF_Eigen_B_2",
      "FT_EFF_Eigen_C_0",
      "FT_EFF_Eigen_C_1",
      "FT_EFF_Eigen_C_2",
      "FT_EFF_Eigen_C_3",
      "FT_EFF_Eigen_Light_0",
      "FT_EFF_Eigen_Light_1",
      "FT_EFF_Eigen_Light_2",
      "FT_EFF_Eigen_Light_3",
      "FT_EFF_Eigen_Light_4",
      "FT_EFF_extrapolation",
      "FT_EFF_extrapolation_from_charm"
    ],
    "JetSys1": [
      "JET_EffectiveNP_Detector1",
      "JET_EffectiveNP_Detector2",
      "JET_EffectiveNP_Mixed1",
      "JET_EffectiveNP_Mixed2",
      "JET_EffectiveNP_Mixed3",
      "JET_EffectiveNP_Modelling1",
      "JET_EffectiveNP_Modelling2",
      "JET_EffectiveNP_Modelling3",
      "JET_EffectiveNP_Modelling4",
      "JET_EffectiveNP_Statistical1",
      "JET_EffectiveNP_Statistical2",
      "JET_EffectiveNP_Statistical3",
      "JET_EffectiveNP_Statistical4",
      "JET_EffectiveNP_Statistical5",
      "JET_EffectiveNP_Statistical6"
    ],
    "JetSys2": [
      "JET_BJES_Response",
      "JET_EtaIntercalibration_Modelling",
      "JET_EtaIntercalibration_NonClosure_2018data",
      "JET_EtaIntercalibration_NonClosure_highE",
      "JET_EtaIntercalibration_NonClosure_negEta",
      "JET_EtaIntercalibration_NonClosure_posEta",
      "JET_EtaIntercalibration_TotalStat",
      "JET_Flavor_Composition",
      "JET_Flavor_Response",
      "JET_JvtEfficiency",
      "JET_Pileup_OffsetMu",
      "JET_Pileup_OffsetNPV",
      "JET_Pileup_PtTerm",
      "JET_Pileup_RhoTopology",
      "JET_PunchThrough_MC16",
      "JET_SingleParticle_HighPt",
      "JET_fJvtEfficiency"
    ],
    "JetSys3": [
      "JET_JER_DataVsMC_MC16_MCsmear",
      "JET_JER_EffectiveNP_1_MCsmear",
      "JET_JER_EffectiveNP_10_MCsmear",
      "JET_JER_EffectiveNP_11_MCsmear",
      "JET_JER_EffectiveNP_12restTerm_MCsmear",
      "JET_JER_EffectiveNP_2_MCsmear",
      "JET_JER_EffectiveNP_3_MCsmear",
      "JET_JER_EffectiveNP_4_MCsmear",
      "JET_JER_EffectiveNP_5_MCsmear",
      "JET_JER_EffectiveNP_6_MCsmear",
      "JET_JER_EffectiveNP_7_MCsmear",
      "JET_JER_EffectiveNP_8_MCsmear",
      "JET_JER_EffectiveNP_9_MCsmear"
    ],
    "JetSys4": [
      "JET_JER_DataVsMC_MC16_PDsmear",
      "JET_JER_EffectiveNP_1_PDsmear",
      "JET_JER_EffectiveNP_10_PDsmear",
      "JET_JER_EffectiveNP_11_PDsmear",
      "JET_JER_EffectiveNP_12restTerm_PDsmear",
      "JET_JER_EffectiveNP_2_PDsmear",
      "JET_JER_EffectiveNP_3_PDsmear",
      "JET_JER_EffectiveNP_4_PDsmear",
      "JET_JER_EffectiveNP_5_PDsmear",
      "JET_JER_EffectiveNP_6_PDsmear",
      "JET_JER_EffectiveNP_7_PDsmear",
      "JET_JER_EffectiveNP_8_PDsmear",
      "JET_JER_EffectiveNP_9_PDsmear"
    ],
    "PhotonSys": [
      "EG_RESOLUTION_ALL",
      "EG_SCALE_AF2",
      "EG_SCALE_ALL",
      "PH_EFF_ID_Uncertainty",
      "PH_EFF_ISO_Uncertainty",
      "PH_EFF_TRIGGER_Uncertainty",
      "PRW_DATASF"
    ],
    "LeptonMETSys": [
      "EL_EFF_ID_TOTAL_1NPCOR_PLUS_UNCOR",
      "EL_EFF_Iso_TOTAL_1NPCOR_PLUS_UNCOR",
      "EL_EFF_Reco_TOTAL_1NPCOR_PLUS_UNCOR",
      "MET_SoftTrk_Scale",
      "MUON_EFF_ISO_STAT",
      "MUON_EFF_ISO_SYS",
      "MUON_EFF_RECO_STAT",
      "MUON_EFF_RECO_STAT_LOWPT",
      "MUON_EFF_RECO_SYS",
      "MUON_EFF_RECO_SYS_LOWPT",
      "MUON_EFF_TTVA_STAT",
      "MUON_EFF_TTVA_SYS",
      "MUON_SAGITTA_RESBIAS",
      "MUON_SCALE"
    ]
  },
  "samples": [
    "HHbbyy_cHHH01d0",
    "hh_bbyy_vbf_l1cvv1cv1",
    "ZH",
    "ttH",
    "ggZH",
    "ggH",
    "HHbbyy_cHHH10d0",
    "hh_bbyy_vbf_l0cvv1cv1",
    "hh_bbyy_vbf_l10cvv1cv1",
    "hh_bbyy_vbf_l1cvv1cv0p5",
    "hh_bbyy_vbf_l1cvv1p5cv1",
    "hh_bbyy_vbf_l1cvv3cv1",
    "hh_bbyy_vbf_l2cvv1cv1",
    "hh_bbyy_vbf_l5mcvv1cv0p5"
  ],
  "prune_significative": true,
  "prune_threshold": 0.1,
  "norm_syst_eval_method": "bootstrap",
  "shape_syst_eval_method": "bootstrap",
  "shape_syst_eval_options": {
    "n_toys": 1000
  },
  "norm_syst_eval_options": {
    "n_toys": 3000
  },
  "shape_estimator": "mean_IQR",
  "shape_estimator_options": {
    "xmin": 112,
    "xmax": 138,
    "n_bins": 26000
  }
}