PRW_DATASF 0 -0.811
EG_SCALE_ALL 2.886 -1.714
EG_RESOLUTION_ALL 13.294 -9.229
JET_BJES_Response 0 -0.728
JET_Flavor_Response 0.627 0
JET_Pileup_OffsetMu 0 -0.561
JET_Pileup_OffsetNPV 0 -0.646
JET_EffectiveNP_Mixed1 -0.315 0
JET_EffectiveNP_Statistical2 -0.225 0
JET_EffectiveNP_Statistical3 -0.127 0
JET_JER_DataVsMC_MC16 0 -0.740
JET_JER_EffectiveNP_1 -1.174 0.943
JET_JER_EffectiveNP_2 -1.306 0
JET_JER_EffectiveNP_3 0 -0.796
JET_JER_EffectiveNP_4 0 -0.937
JET_JER_EffectiveNP_6 0 -1.143
JET_JER_EffectiveNP_7 -0.665 0
JET_JER_EffectiveNP_8 -0.630 0
JET_JER_EffectiveNP_11 0.503 0
