PH_EFF_TRIGGER_Uncertainty 0.987 -0.981
PRW_DATASF 1.138 0
PH_EFF_ID_Uncertainty 1.380 -1.371
PH_EFF_ISO_Uncertainty 1.428 -1.418
EG_RESOLUTION_ALL 0 1.132
JET_BJES_Response 2.535 0
JET_EtaIntercalibration_NonClosure_2018data 1.346 0
JET_Pileup_OffsetMu 1.819 -1.776
JET_Pileup_OffsetNPV 1.730 -2.616
JET_Pileup_PtTerm 2.170 0
JET_Pileup_RhoTopology 4.963 -2.370
JET_fJvtEfficiency 0.449 -0.447
JET_EffectiveNP_Detector1 -0.561 0.773
JET_EffectiveNP_Mixed2 1.128 0
JET_EffectiveNP_Modelling1 2.854 0
JET_EffectiveNP_Statistical2 0.897 -0.504
JET_EffectiveNP_Statistical4 0 0.577
JET_EffectiveNP_Statistical5 0.549 0
JET_JER_EffectiveNP_1 0 -6.774
JET_JER_EffectiveNP_2 3.735 -7.609
JET_JER_EffectiveNP_3 -4.891 0
JET_JER_EffectiveNP_4 -5.981 0
JET_JER_EffectiveNP_5 1.200 -1.171
JET_JER_EffectiveNP_6 -3.937 0
JET_JER_EffectiveNP_7 1.509 0
JET_JER_EffectiveNP_8 -2.118 3.825
JET_JER_EffectiveNP_9 3.165 -3.557
JET_JER_EffectiveNP_10 -2.727 0
JET_JER_EffectiveNP_11 4.329 -2.833
JET_JER_EffectiveNP_12restTerm 2.020 0
FT_EFF_Eigen_B_0 -2.066 2.081
FT_EFF_Eigen_B_1 -1.154 1.160
FT_EFF_Eigen_C_0 -1.121 1.168
FT_EFF_Eigen_C_1 0.133 -0.134
FT_EFF_Eigen_C_2 0.136 -0.132
FT_EFF_Eigen_C_3 0.111 -0.111
FT_EFF_Eigen_Light_0 -1.093 1.143
FT_EFF_Eigen_Light_4 0.110 -0.110
