{
  "paths": {
    "ntuples": "/eos/user/c/chlcheng/analysis/bbyy/VBF_optimization/preselected_h027_01_04_2022/ntuples",
    "arrays": "/eos/user/c/chlcheng/analysis/bbyy/VBF_optimization/preselected_h027_01_04_2022/arrays",
    "models": "/eos/user/c/chlcheng/analysis/bbyy/VBF_optimization/preselected_h027_01_04_2022/models",
    "outputs": "/eos/user/c/chlcheng/analysis/bbyy/VBF_optimization/preselected_h027_01_04_2022/outputs"
  },
  "samples": {
    "all": [
      "HHbbyy_cHHH01d0",
      "HHbbyy_cHHH10d0",
      "VBF",
      "WH",
      "ZH",
      "ggH",
      "hh_bbyy_vbf_l0cvv0cv1",
      "hh_bbyy_vbf_l1cvv0cv1",
      "hh_bbyy_vbf_l1cvv0p5cv1",
      "hh_bbyy_vbf_l1cvv1cv0p5",
      "hh_bbyy_vbf_l1cvv1cv1p5",
      "hh_bbyy_vbf_l1cvv1p5cv1",
      "hh_bbyy_vbf_l1cvv2cv1",
      "hh_bbyy_vbf_l1cvv3cv1",
      "hh_bbyy_vbf_l2cvv1cv1",
      "hh_bbyy_vbf_l1cvv1cv1",
      "hh_bbyy_vbf_l10cvv1cv1",
      "hh_bbyy_vbf_l0cvv1cv1",
      "hh_bbyy_vbf_l5mcvv1cv0p5",
      "tHjb",
      "tWH",
      "ttH",
      "yy",
      "ttyy",
      "data"
    ],
    "extra": [
      "hh_bbyy_ggF_kl_0p0",
      "hh_bbyy_ggF_kl_2p0",
      "hh_bbyy_ggF_kl_5p6"
    ],
    "single_Higgs": [
      "VBF",
      "WH",
      "ZH",
      "ggH",
      "tHjb",
      "tWH",
      "ttH"
    ],
    "background": [
      "VBF",
      "WH",
      "ZH",
      "ggH",
      "tHjb",
      "tWH",
      "ttH",
      "yy",
      "ttyy"
    ],
    "baseline_train": [
      "HHbbyy_cHHH01d0",
      "ZH",
      "ggH",
      "ttH",
      "yy"
    ],
    "baseline_test": [
      "HHbbyy_cHHH01d0",
      "hh_bbyy_vbf_l1cvv1cv1",
      "VBF",
      "WH",
      "ZH",
      "ggH",
      "tHjb",
      "tWH",
      "ttH",
      "yy"
    ],
    "SM_signal": [
      "HHbbyy_cHHH01d0",
      "hh_bbyy_vbf_l1cvv1cv1"
    ],
    "ggF_signal": [
      "HHbbyy_cHHH01d0",
      "HHbbyy_cHHH10d0"
    ],
    "VBF_signal": [
      "hh_bbyy_vbf_l0cvv0cv1",
      "hh_bbyy_vbf_l1cvv0cv1",
      "hh_bbyy_vbf_l1cvv0p5cv1",
      "hh_bbyy_vbf_l1cvv1cv0p5",
      "hh_bbyy_vbf_l1cvv1cv1p5",
      "hh_bbyy_vbf_l1cvv1p5cv1",
      "hh_bbyy_vbf_l1cvv2cv1",
      "hh_bbyy_vbf_l1cvv3cv1",
      "hh_bbyy_vbf_l2cvv1cv1",
      "hh_bbyy_vbf_l1cvv1cv1",
      "hh_bbyy_vbf_l10cvv1cv1",
      "hh_bbyy_vbf_l0cvv1cv1",
      "hh_bbyy_vbf_l5mcvv1cv0p5"
    ]
  },
  "kinematic_regions": [],
  "workspace":{
      "sample_map": {
        "HHbbyy_cHHH01d0": "HH_ggF",
        "hh_bbyy_vbf_l1cvv1cv1": "HH_VBF",
        "ggH": "ggH",
        "VBF": "VBF",
        "WH": "WH",
        "ZH": "ZH",
        "tHjb": "tHjb",
        "tWH": "tWH",
        "ttH": "ttH"
      },
      "Higgs_mass": 125.09
  },
  "signal_modelling": {
    "functional_form": "DSCB",
    "minitree_prefix": "HH",
    "fit_range": [
      115,
      135
    ],
    "n_bins": 20,
    "samples": [
      "HHbbyy_cHHH01d0",
      "hh_bbyy_vbf_l1cvv1cv1"
    ],
    "plot_range": [
      110,
      140
    ],
    "plot_n_bins": 30
  },
  "background_modelling": {
    "functional_form": "exponential"
  },
  "kl_reweighting": {
    "base_sample": "HHbbyy_cHHH01d0",
    "reweight_filename": "weight-mHH-from-cHHHp01d0-to-cHHHpx_10GeV_Sept7_overflowfix.root",
    "reference_sample": "HHbbyy_ggF_reweighting",
    "reweighted_sample": "hh_bbyy_ggF_kl_{param_val}",
    "vars": [
      "crossSectionBR_{param_val}",
      "kappa_lambda_weight_10GeV_{param_val}"
    ],
    "weight": "(1/(8.18086e-05)) * crossSectionBR_{param_val} * kappa_lambda_weight_10GeV_{param_val}"
  },
  "kl_reweighting_alt": {
    "base_sample": "HHbbyy_cHHH10d0",
    "reweight_filename": "weight-mHH-from-cHHHp10d0-to-cHHHpx_10GeV_Sept7_overflowfix.root",
    "reference_sample": "HHbbyy_ggF_reweighting_alt",
    "reweighted_sample": "hh_bbyy_ggF_kl_{param_val}_alt",
    "vars": [
      "crossSectionBR_{param_val}",
      "kappa_lambda_weight_10GeV_{param_val}"
    ],
    "weight": "(1/(1.77195e-03)) * crossSectionBR_{param_val} * kappa_lambda_weight_10GeV_{param_val}"
  },
  "parameterization": {
    "klambda": {
      "nominal": 1,
      "min": -10,
      "max": 10,
      "scan_range": [
        -10,
        10
      ],
      "step": 0.2
    },
    "k2v": {
      "nominal": 1,
      "min": -10,
      "max": 10,
      "scan_range": [
        -5,
        5
      ],
      "step": 0.2
    },
    "kv": {
      "nominal": 1,
      "min": -10,
      "max": 10
    }
  },
  "limit_scan": {
    "klambda": "klambda=-10_10_0.2",
    "k2v": "k2v=-5_5_0.2",
    "k2v_vbf_only": "k2v=-5_5_0.2,k2v=0_2_0.05",
    "klambda_k2v": "klambda=-10_10_0.2,k2v=-5_5_0.2;klambda=0_3_0.1,k2v=-2.4_0_0.1,k2v=2_4_0.1;klambda=2_3_0.1,k2v=-2.4_0_0.1,k2v=2_4_0.1"
  },
  "likelihood_scan": {
    "klambda": "klambda=-5_10_0.2",
    "k2v": "k2v=-2_4_0.1",
    "klambda_k2v": "klambda=-10_10_0.2,k2v=-6_6_0.2"
  },
  "ggF_param": {
    "method": "reweight_fit",
    "workspace_sample": "HH_ggF",
    "reference_points": {
      "1p0": "HHbbyy_cHHH01d0"
    },
    "validation": {
      "HHbbyy_cHHH01d0": {
        "klambda": 1
      },
      "HHbbyy_cHHH10d0": {
        "klambda": 10
      }
    },
    "coefficients": [
      "p0",
      "p1",
      "p2"
    ],
    "expression": "p0 + p1*klambda + p2*klambda*klambda",
    "parameters": [
      "klambda"
    ]
  },
  "VBF_param": {
    "method": "linear_combination",
    "workspace_sample": "HH_VBF",
    "latex_map": {
      "klambda": "k_{\\lambda}",
      "kv": "k_{v}",
      "k2v": "k_{2v}"
    },
    "basis_samples": {
      "hh_bbyy_vbf_l1cvv1cv1": {
        "klambda": "1",
        "k2v": "1",
        "kv": "1"
      },
      "hh_bbyy_vbf_l0cvv1cv1": {
        "klambda": "0",
        "k2v": "1",
        "kv": "1"
      },
      "hh_bbyy_vbf_l10cvv1cv1": {
        "klambda": "10",
        "k2v": "1",
        "kv": "1"
      },
      "hh_bbyy_vbf_l1cvv1p5cv1": {
        "klambda": "1",
        "k2v": "3/2",
        "kv": "1"
      },
      "hh_bbyy_vbf_l1cvv3cv1": {
        "klambda": "1",
        "k2v": "3",
        "kv": "1"
      },
      "hh_bbyy_vbf_l5mcvv1cv0p5": {
        "klambda": "-5",
        "k2v": "1",
        "kv": "1/2"
      }
    },
    "validation_samples": {
      "hh_bbyy_vbf_l0cvv0cv1": {
        "klambda": "0",
        "k2v": "0",
        "kv": "1"
      },
      "hh_bbyy_vbf_l1cvv0cv1": {
        "klambda": "1",
        "k2v": "0",
        "kv": "1"
      },
      "hh_bbyy_vbf_l1cvv0p5cv1": {
        "klambda": "1",
        "k2v": "1/2",
        "kv": "1"
      },
      "hh_bbyy_vbf_l1cvv1cv0p5": {
        "klambda": "1",
        "k2v": "1",
        "kv": "1/2"
      },
      "hh_bbyy_vbf_l1cvv1cv1p5": {
        "klambda": "1",
        "k2v": "1",
        "kv": "3/2"
      },
      "hh_bbyy_vbf_l1cvv1p5cv1": {
        "klambda": "1",
        "k2v": "3/2",
        "kv": "1"
      },
      "hh_bbyy_vbf_l1cvv2cv1": {
        "klambda": "1",
        "k2v": "2",
        "kv": "1"
      },
      "hh_bbyy_vbf_l1cvv3cv1": {
        "klambda": "1",
        "k2v": "3",
        "kv": "1"
      },
      "hh_bbyy_vbf_l2cvv1cv1": {
        "klambda": "2",
        "k2v": "1",
        "kv": "1"
      },
      "hh_bbyy_vbf_l1cvv1cv1": {
        "klambda": "1",
        "k2v": "1",
        "kv": "1"
      },
      "hh_bbyy_vbf_l10cvv1cv1": {
        "klambda": "10",
        "k2v": "1",
        "kv": "1"
      },
      "hh_bbyy_vbf_l0cvv1cv1": {
        "klambda": "0",
        "k2v": "1",
        "kv": "1"
      },
      "hh_bbyy_vbf_l5mcvv1cv0p5": {
        "klambda": "-5",
        "k2v": "1",
        "kv": "1/2"
      }
    },
    "formula": "a1 * k2v**2 + a2 *kv**4 + a3 * klambda**2 * kv**2 + a4 * kv**2 * k2v + a5 * klambda * kv * k2v + a6 * klambda * kv**3",
    "coefficients": [
      "a1",
      "a2",
      "a3",
      "a4",
      "a5",
      "a6"
    ],
    "parameters": [
      "klambda",
      "k2v",
      "kv"
    ]
  },
  "observable": {
    "name": "m_yy",
    "eval_expr": "mass_yy * 0.001",
    "bin_range": [
      105,
      160
    ],
    "blind_range": [
      120,
      130
    ],
    "n_bins": 550
  },
  "variables": {
    "all": [
      "rel_photon1_pt",
      "photon1_eta",
      "photon1_phi",
      "rel_photon2_pt",
      "photon2_eta",
      "photon2_phi",
      "met_pt",
      "met_phi",
      "jet1_pt",
      "jet1_eta",
      "jet1_phi",
      "jet1_btag",
      "jet2_pt",
      "jet2_eta",
      "jet2_phi",
      "jet2_btag",
      "jet3_pt",
      "jet3_eta",
      "jet3_phi",
      "jet3_btag",
      "jet4_pt",
      "jet4_eta",
      "jet4_phi",
      "jet4_btag",
      "bb_pt",
      "bb_eta",
      "bb_phi",
      "bb_M",
      "HT",
      "mHH",
      "single_topness",
      "vbf_jj_deta",
      "vbf_jj_m",
      "m_yyjj",
      "dR_yy",
      "dR_jj",
      "sphericityT",
      "planarFlow",
      "pt_balance"
    ],
    "vbf": [
      "vbf_jj_deta",
      "vbf_jj_m",
      "m_yyjj",
      "dR_yy",
      "dR_jj",
      "sphericityT",
      "planarFlow",
      "pt_balance"
    ],
    "extra_jets": [
      "jet3_pt",
      "jet3_eta",
      "jet3_phi",
      "jet3_btag",
      "jet4_pt",
      "jet4_eta",
      "jet4_phi",
      "jet4_btag"
    ],
    "baseline_train": [
      "rel_photon1_pt",
      "photon1_eta",
      "photon1_phi",
      "rel_photon2_pt",
      "photon2_eta",
      "photon2_phi",
      "met_pt",
      "met_phi",
      "jet1_pt",
      "jet1_eta",
      "jet1_phi",
      "jet1_btag",
      "jet2_pt",
      "jet2_eta",
      "jet2_phi",
      "jet2_btag",
      "bb_pt",
      "bb_eta",
      "bb_phi",
      "bb_M",
      "HT",
      "single_topness"
    ]
  },
  "names": {
    "tree_name": "output",
    "event_number": "event_number",
    "weight": "weight",
    "cat_weight": "cat_weight",
    "total_weight": "total_weight",
    "category": "cat",
    "score": "score"
  },
  "rescale_weights": {
    "ntuple_conversion": {
      "hh_bbyy_vbf_l1cvv0cv1": 1e-05
    }
  },
  "training": {
    "datasets": {
      "specification": {
        "public_train": {
          "selection": "event_number % 4 <= 1",
          "variables": [
            "event_number"
          ],
          "effective_weight": 0.5
        },
        "public_test": {
          "selection": "event_number % 4 == 2",
          "variables": [
            "event_number"
          ],
          "effective_weight": 0.25
        },
        "private_test": {
          "selection": "event_number % 4 == 3",
          "variables": [
            "event_number"
          ],
          "effective_weight": 0.25
        }
      },
      "split_method": "custom",
      "split_options": {
        "datasets": {
          "train": [
            "public_train"
          ],
          "validation": [
            "public_test"
          ],
          "test": [
            "public_test"
          ]
        }
      }
    },
    "sample_transformation": {
      "normalize_weight": true
    },
    "dataset_transformation": {
      "scale_weight_by_mean": true,
      "negative_weight_mode": 1,
      "random_state": 2022
    }
  },
  "categorization": {
    "boundary_scan": {
      "selection": {
        "VBF": "(mass_yy/1000. >= 120 && mass_yy/1000. <= 130)",
        "WH": "(mass_yy/1000. >= 120 && mass_yy/1000. <= 130)",
        "tHjb": "(mass_yy/1000. >= 120 && mass_yy/1000. <= 130)",
        "tWH": "(mass_yy/1000. >= 120 && mass_yy/1000. <= 130)",
        "ttH": "(mass_yy/1000. >= 120 && mass_yy/1000. <= 130)",
        "ggH": "(mass_yy/1000. >= 120 && mass_yy/1000. <= 130)",
        "ZH": "(mass_yy/1000. >= 120 && mass_yy/1000. <= 130)",
        "yy": "10./55. * 1.34 * (mass_yy/1000. >= 105 && mass_yy/1000. <=160)",
        "ttyy": "10./55. * (mass_yy/1000. >= 105 && mass_yy/1000. <=160)",
        "yyhf": "10./55. * (mass_yy/1000. >= 105 && mass_yy/1000. <=160)",
        "HHbbyy_cHHH01d0": "(mass_yy/1000. >= 120 && mass_yy/1000. <= 130)",
        "HHbbyy_cHHH10d0": "(mass_yy/1000. >= 120 && mass_yy/1000. <= 130)",
        "hh_bbyy_ggF_kl_6p0": "(mass_yy/1000. >= 120 && mass_yy/1000. <= 130)",
        "hh_bbyy_vbf_l0cvv0cv1": "(mass_yy/1000. >= 120 && mass_yy/1000. <= 130)",
        "hh_bbyy_vbf_l1cvv0cv1": "(mass_yy/1000. >= 120 && mass_yy/1000. <= 130)",
        "hh_bbyy_vbf_l1cvv0p5cv1": "(mass_yy/1000. >= 120 && mass_yy/1000. <= 130)",
        "hh_bbyy_vbf_l1cvv1cv0p5": "(mass_yy/1000. >= 120 && mass_yy/1000. <= 130)",
        "hh_bbyy_vbf_l1cvv1cv1p5": "(mass_yy/1000. >= 120 && mass_yy/1000. <= 130)",
        "hh_bbyy_vbf_l1cvv1p5cv1": "(mass_yy/1000. >= 120 && mass_yy/1000. <= 130)",
        "hh_bbyy_vbf_l1cvv2cv1": "(mass_yy/1000. >= 120 && mass_yy/1000. <= 130)",
        "hh_bbyy_vbf_l1cvv3cv1": "(mass_yy/1000. >= 120 && mass_yy/1000. <= 130)",
        "hh_bbyy_vbf_l2cvv1cv1": "(mass_yy/1000. >= 120 && mass_yy/1000. <= 130)",
        "hh_bbyy_vbf_l1cvv1cv1": "(mass_yy/1000. >= 120 && mass_yy/1000. <= 130)",
        "hh_bbyy_vbf_l10cvv1cv1": "(mass_yy/1000. >= 120 && mass_yy/1000. <= 130)",
        "hh_bbyy_vbf_l0cvv1cv1": "(mass_yy/1000. >= 120 && mass_yy/1000. <= 130)",
        "hh_bbyy_vbf_l5mcvv1cv0p5": "(mass_yy/1000. >= 120 && mass_yy/1000. <= 130)",
        "data": "10./45. * (!(mass_yy/1000. >= 120 && mass_yy/1000. <= 130))"
      },
      "datasets": [
        "public_test"
      ],
      "adaptive_dataset": true
    },
    "evaluation": {
      "datasets": [
        "public_test"
      ],
      "adaptive_dataset": true
    },
    "save_variables": [
      "event_number",
      "truth_m_hh"
    ]
  },
  "data_storage": {
    "analysis_data_arrays": {
      "storage_format": "csv",
      "storage_options": {}
    }
  },
  "channels": {
    "Inclusive": {
      "selection": "1",
      "train_samples": [
        "HHbbyy_cHHH01d0",
        "hh_bbyy_ggF_kl_5p6",
        "hh_bbyy_vbf_l1cvv1cv1",
        "hh_bbyy_vbf_l0cvv1cv1",
        "hh_bbyy_vbf_l10cvv1cv1",
        "hh_bbyy_vbf_l1cvv1p5cv1",
        "hh_bbyy_vbf_l1cvv3cv1",
        "hh_bbyy_vbf_l5mcvv1cv0p5",
        "background"
      ],
      "test_samples": [
        "HHbbyy_cHHH01d0",
        "hh_bbyy_ggF_kl_5p6",
        "VBF_signal",
        "background",
        "data"
      ],
      "train_variables": [
        "baseline_train",
        "extra_jets",
        "vbf",
        "mHH"
      ],
      "class_labels": {
        "bkg_enriched": [
          "background"
        ],
        "SM_enriched": [
          "SM_signal"
        ],
        "BSM_enriched": [
          "hh_bbyy_ggF_kl_5p6",
          "hh_bbyy_vbf_l0cvv1cv1",
          "hh_bbyy_vbf_l10cvv1cv1",
          "hh_bbyy_vbf_l1cvv1p5cv1",
          "hh_bbyy_vbf_l1cvv3cv1",
          "hh_bbyy_vbf_l5mcvv1cv0p5"
        ]
      },
      "counting_significance": {
        "SM_enriched": {
          "signal": [
            "SM_signal"
          ],
          "background": [
            "background"
          ],
          "n_bins": 200,
          "n_boundaries": 3,
          "min_yield": {
            "yy": 2
          }
        },
        "BSM_enriched": {
          "signal": [
            "hh_bbyy_ggF_kl_5p6",
            "hh_bbyy_vbf_l0cvv1cv1",
            "hh_bbyy_vbf_l10cvv1cv1",
            "hh_bbyy_vbf_l1cvv1p5cv1",
            "hh_bbyy_vbf_l1cvv3cv1",
            "hh_bbyy_vbf_l5mcvv1cv0p5"
          ],
          "background": [
            "background"
          ],
          "n_bins": 400,
          "n_boundaries": 3,
          "min_yield": {
            "yy": 2
          }
        }
      },
      "exclude_categories": [
        [
          0,
          0
        ]
      ]
    },
    "SM": {
      "selection": "mHH >= 350000",
      "selection_variables": [
        "mHH"
      ],
      "train_samples": [
        "HHbbyy_cHHH01d0",
        "hh_bbyy_ggF_kl_5p6",
        "VBF_signal",
        "background"
      ],
      "test_samples": [
        "HHbbyy_cHHH01d0",
        "hh_bbyy_ggF_kl_5p6",
        "VBF_signal",
        "background",
        "data"
      ],
      "train_variables": [
        "baseline_train",
        "extra_jets",
        "vbf"
      ],
      "class_labels": {
        "bkg_enriched": [
          "background"
        ],
        "ggF_enriched": [
          "HHbbyy_cHHH01d0",
          "hh_bbyy_ggF_kl_5p6"
        ],
        "VBF_enriched": [
          "VBF_signal"
        ]
      },
      "hyperparameters": {
        "colsample_bytree": 0.5012415034509439,
        "silent": 1,
        "eval_metric": [
          "mlogloss"
        ],
        "grow_policy": "lossguide",
        "max_delta_step": 18.98294426274745,
        "nthread": 4,
        "min_child_weight": 99,
        "subsample": 0.9773324984631209,
        "eta": 0.05355819664799499,
        "max_bin": 47,
        "objective": "multi:softprob",
        "num_class": 3,
        "alpha": 0.9140805390232063,
        "tree_method": "hist",
        "max_depth": 38,
        "gamma": 9.729765484011525,
        "booster": "gbtree"
      },
      "SF": {
        "HHbbyy_cHHH01d0": 100,
        "HHbbyy_cHHH10d0": 100,
        "hh_bbyy_ggF_kl_0p0": 100,
        "hh_bbyy_ggF_kl_2p0": 100,
        "hh_bbyy_ggF_kl_5p6": 100,
        "hh_bbyy_vbf_l0cvv0cv1": 20,
        "hh_bbyy_vbf_l1cvv0cv1": 20,
        "hh_bbyy_vbf_l1cvv0p5cv1": 20,
        "hh_bbyy_vbf_l1cvv1cv0p5": 20,
        "hh_bbyy_vbf_l1cvv1cv1p5": 20,
        "hh_bbyy_vbf_l1cvv1p5cv1": 20,
        "hh_bbyy_vbf_l1cvv2cv1": 20,
        "hh_bbyy_vbf_l1cvv3cv1": 20,
        "hh_bbyy_vbf_l2cvv1cv1": 20,
        "hh_bbyy_vbf_l1cvv1cv1": 100,
        "hh_bbyy_vbf_l10cvv1cv1": 20,
        "hh_bbyy_vbf_l0cvv1cv1": 20,
        "hh_bbyy_vbf_l5mcvv1cv0p5": 20,
        "yy": 20,
        "ttyy": 20,
        "ttH": 2,
        "ggH": 2,
        "ZH": 2
      },
      "counting_significance": {
        "ggF_enriched": {
          "signal": [
            "HHbbyy_cHHH01d0"
          ],
          "background": [
            "background"
          ],
          "n_bins": 200,
          "n_boundaries": 2,
          "min_yield": {
            "yy": 2
          }
        },
        "VBF_enriched": {
          "signal": [
            "hh_bbyy_vbf_l1cvv1cv1"
          ],
          "background": [
            "background"
          ],
          "n_bins": 600,
          "n_boundaries": 1,
          "min_yield": {
            "yy": 2
          }
        }
      },
      "exclude_categories": [
        [
          0,
          0
        ]
      ]
    },
    "BSM": {
      "selection": "mHH < 350000",
      "selection_variables": [
        "mHH"
      ],
      "train_samples": [
        "HHbbyy_cHHH01d0",
        "hh_bbyy_ggF_kl_5p6",
        "VBF_signal",
        "background"
      ],
      "test_samples": [
        "HHbbyy_cHHH01d0",
        "hh_bbyy_ggF_kl_5p6",
        "VBF_signal",
        "background",
        "data"
      ],
      "train_variables": [
        "baseline_train",
        "extra_jets",
        "vbf"
      ],
      "class_labels": {
        "bkg_enriched": [
          "background"
        ],
        "ggF_enriched": [
          "HHbbyy_cHHH01d0",
          "hh_bbyy_ggF_kl_5p6"
        ],
        "VBF_enriched": [
          "VBF_signal"
        ]
      },
      "hyperparameters": {
        "colsample_bytree": 0.5012415034509439,
        "silent": 1,
        "eval_metric": [
          "mlogloss"
        ],
        "grow_policy": "lossguide",
        "max_delta_step": 18.98294426274745,
        "nthread": 4,
        "min_child_weight": 99,
        "subsample": 0.9773324984631209,
        "eta": 0.05355819664799499,
        "max_bin": 47,
        "objective": "multi:softprob",
        "num_class": 3,
        "alpha": 0.9140805390232063,
        "tree_method": "hist",
        "max_depth": 38,
        "gamma": 9.729765484011525,
        "booster": "gbtree"
      },
      "SF": {
        "HHbbyy_cHHH01d0": 100,
        "HHbbyy_cHHH10d0": 100,
        "hh_bbyy_ggF_kl_0p0": 100,
        "hh_bbyy_ggF_kl_2p0": 100,
        "hh_bbyy_ggF_kl_5p6": 100,
        "hh_bbyy_vbf_l0cvv0cv1": 20,
        "hh_bbyy_vbf_l1cvv0cv1": 20,
        "hh_bbyy_vbf_l1cvv0p5cv1": 20,
        "hh_bbyy_vbf_l1cvv1cv0p5": 20,
        "hh_bbyy_vbf_l1cvv1cv1p5": 20,
        "hh_bbyy_vbf_l1cvv1p5cv1": 20,
        "hh_bbyy_vbf_l1cvv2cv1": 20,
        "hh_bbyy_vbf_l1cvv3cv1": 20,
        "hh_bbyy_vbf_l2cvv1cv1": 20,
        "hh_bbyy_vbf_l1cvv1cv1": 100,
        "hh_bbyy_vbf_l10cvv1cv1": 20,
        "hh_bbyy_vbf_l0cvv1cv1": 20,
        "hh_bbyy_vbf_l5mcvv1cv0p5": 20,
        "yy": 20,
        "ttyy": 20,
        "ttH": 2,
        "ggH": 2,
        "ZH": 2
      },
      "counting_significance": {
        "ggF_enriched": {
          "signal": [
            "hh_bbyy_ggF_kl_5p6"
          ],
          "background": [
            "background"
          ],
          "n_bins": 200,
          "n_boundaries": 2,
          "min_yield": {
            "yy": 2
          }
        },
        "VBF_enriched": {
          "signal": [
            "hh_bbyy_vbf_l1cvv1cv1"
          ],
          "background": [
            "background"
          ],
          "n_bins": 600,
          "n_boundaries": 1,
          "min_yield": {
            "yy": 2
          }
        }
      },
      "exclude_categories": [
        [
          0,
          0
        ]
      ]
    }
  },
  "benchmark": {
    "counting_significance": {
      "Z_target_SM": {
        "signal": [
          "SM_signal"
        ],
        "background": [
          "background"
        ]
      },
      "Z_target_kl": {
        "signal": [
          "hh_bbyy_ggF_kl_5p6",
          "hh_bbyy_vbf_l0cvv1cv1",
          "hh_bbyy_vbf_l10cvv1cv1",
          "hh_bbyy_vbf_l1cvv1p5cv1",
          "hh_bbyy_vbf_l1cvv3cv1",
          "hh_bbyy_vbf_l5mcvv1cv0p5"
        ],
        "background": [
          "background"
        ]
      },
      "Z_target_k2v": {
        "signal": [
          "hh_bbyy_vbf_l0cvv1cv1",
          "hh_bbyy_vbf_l10cvv1cv1",
          "hh_bbyy_vbf_l1cvv1p5cv1",
          "hh_bbyy_vbf_l1cvv3cv1",
          "hh_bbyy_vbf_l5mcvv1cv0p5"
        ],
        "background": [
          "background"
        ]
      }
    }
  }
}