{
  "class": null,
  "boundaries": [
    0.43,
    0.785,
    0.89,
    0.95
  ],
  "branch": {
    "0": {},
    "1": {},
    "2": {},
    "3": {},
    "4": {}
  },
  "significance": 1.2951718334283173
}