EG_RESOLUTION_ALL 0 0.23
EG_SCALE_ALL -1.075 0.986
FT_EFF_Eigen_B_0 -2.994 3.028
FT_EFF_Eigen_B_1 -1.214 1.22
FT_EFF_Eigen_B_2 0.201 -0.201
FT_EFF_Eigen_Light_0 -0.385 0.387
JET_BJES_Response 1.32 -1.605
JET_EffectiveNP_Mixed1 -0.231 0.138
JET_EffectiveNP_Mixed2 0 -0.215
JET_EffectiveNP_Mixed3 0.101 0
JET_EffectiveNP_Modelling1 0.679 -0.795
JET_EffectiveNP_Modelling2 -0.21 0.211
JET_EffectiveNP_Modelling3 0.179 -0.206
JET_EffectiveNP_Statistical2 0 0.131
JET_EtaIntercalibration_Modelling 0.571 -0.763
JET_EtaIntercalibration_NonClosure_2018data 0 -0.17
JET_EtaIntercalibration_TotalStat 0.167 -0.278
JET_Flavor_Composition 0 -0.288
JET_JER_EffectiveNP_1 -0.838 0.766
JET_JER_EffectiveNP_10 -0.759 0.322
JET_JER_EffectiveNP_11 -0.67 0.239
JET_JER_EffectiveNP_12restTerm -0.743 0
JET_JER_EffectiveNP_2 -1.092 0.512
JET_JER_EffectiveNP_3 0.122 -0.924
JET_JER_EffectiveNP_4 0.26 -0.862
JET_JER_EffectiveNP_5 0 0.275
JET_JER_EffectiveNP_6 0 -0.786
JET_JER_EffectiveNP_7 -0.454 0.213
JET_JER_EffectiveNP_8 -0.241 0
JET_JER_EffectiveNP_9 -0.44 0
JET_Pileup_OffsetNPV 0.229 -0.395
JET_Pileup_PtTerm -0.412 0.183
JET_Pileup_RhoTopology 1.487 -1.907
JET_fJvtEfficiency 0.492 -0.489
PH_EFF_ID_Uncertainty 1.757 -1.742
PH_EFF_ISO_Uncertainty 1.636 -1.623
PH_EFF_TRIGGER_Uncertainty 0.953 -0.948
PRW_DATASF -2.241 2.027
