EG_RESOLUTION_ALL 0.442 0
EG_SCALE_ALL 0.682 -0.164
FT_EFF_Eigen_B_0 -2.517 2.539
FT_EFF_Eigen_B_1 -1.246 1.253
FT_EFF_Eigen_B_2 0.128 -0.128
FT_EFF_Eigen_Light_0 -0.391 0.393
JET_BJES_Response 1.459 -0.972
JET_EffectiveNP_Detector1 0.135 0
JET_EffectiveNP_Mixed1 -0.26 0.301
JET_EffectiveNP_Mixed2 0 0.193
JET_EffectiveNP_Mixed3 0.126 0
JET_EffectiveNP_Modelling1 1.175 -0.544
JET_EffectiveNP_Modelling2 -0.124 0
JET_EffectiveNP_Modelling3 0.164 -0.144
JET_EffectiveNP_Modelling4 0.107 0
JET_EffectiveNP_Statistical1 0.109 0
JET_EffectiveNP_Statistical2 0 0.19
JET_EffectiveNP_Statistical4 0.126 -0.108
JET_EffectiveNP_Statistical6 0.127 0
JET_EtaIntercalibration_Modelling 1.161 -0.401
JET_EtaIntercalibration_NonClosure_2018data 0.4 0
JET_EtaIntercalibration_TotalStat 0.223 -0.147
JET_Flavor_Composition 0.817 -0.4
JET_Flavor_Response 0 0.573
JET_JER_EffectiveNP_1 1.311 -0.979
JET_JER_EffectiveNP_11 -0.409 1.231
JET_JER_EffectiveNP_12restTerm 0.767 -0.655
JET_JER_EffectiveNP_2 2.099 -1.335
JET_JER_EffectiveNP_3 -1.157 1.47
JET_JER_EffectiveNP_4 1.466 -0.757
JET_JER_EffectiveNP_5 -1.214 1.628
JET_JER_EffectiveNP_6 -0.943 0.945
JET_JER_EffectiveNP_7 0 0.19
JET_JER_EffectiveNP_8 -0.583 0.705
JET_JER_EffectiveNP_9 1.175 -0.762
JET_Pileup_OffsetMu 0.492 0
JET_Pileup_OffsetNPV 0.888 -0.526
JET_Pileup_PtTerm 0 0.125
JET_Pileup_RhoTopology 1.525 -1.435
JET_fJvtEfficiency 0.549 -0.545
PH_EFF_ID_Uncertainty 1.557 -1.545
PH_EFF_ISO_Uncertainty 1.526 -1.514
PH_EFF_TRIGGER_Uncertainty 0.983 -0.978
PRW_DATASF -1.455 1.011
